M48
; DRILL file {KiCad (5.1.10)-1} date 08/07/21 13:38:05
; FORMAT={-:-/ absolute / inch / decimal}
; #@! TF.CreationDate,2021-08-07T13:38:05-04:00
; #@! TF.GenerationSoftware,Kicad,Pcbnew,(5.1.10)-1
; #@! TF.FileFunction,NonPlated,1,2,NPTH
FMAT,2
INCH
T1C0.1772
%
G90
G05
T1
X4.1909Y-2.8937
X6.5827Y-2.8937
T0
M30
